{
    "schema_version": 2,
    "description": "LooseMvaSF",
    "corrections": [
        {
            "name": "LooseMvaSF",
            "version": 1,
            "inputs": [
                {
                    "name": "systematic",
                    "type": "string",
                    "description": "Systematic variation"
                    },
                {
                    "name": "eta",
                    "type": "real",
                    "description": "Photon eta"
                    },
                {
                    "name": "r9",
                    "type": "real",
                    "description": "Photon full 5x5 R9, ratio E3x3/ERAW, where E3x3 is the energy sum of the 3 by 3 crystals surrounding the supercluster seed crystal and ERAW is the raw energy sum of the supercluster"
                }
            ],
            "output": {
                "name": "Ecorr",
                "type": "real",
                "description": "Multiplicative correction to photon energy and pt"
            }, 
            "data": {
                "nodetype": "category",
                "input": "systematic",
                "content": [
                    {
                        "key": "nominal",
                        "value": {
                            "nodetype": "multibinning",
                            "inputs": ["eta", "r9"],
                            "edges": [
                                [0.0, 1.5, 6.0], 
                                [0.0, 0.85, 0.9, 999.0]
                            ],
                            "content": [1.0021, 1.0001, 1.0001, 1.0061, 1.0061, 1.0016],
                            "flow": "clamp"
                        }
                    },
                    {
                        "key": "up",
                        "value": {
                            "nodetype": "multibinning",
                            "inputs": ["eta", "r9"],
                            "edges": [
                                [0.0, 1.5, 6.0],
                                [0.0, 0.85, 0.9, 999.0]
                            ],
                            "content": [1.0035, 1.0039, 1.0039, 1.0075, 1.0075, 1.0039],
                            "flow": "clamp"
                        }
                    }, 
                    {
                        "key": "down",
                        "value": {
                            "nodetype": "multibinning",
                            "inputs": ["eta", "r9"],
                            "edges": [
                                [0.0, 1.5, 6.0],
                                [0.0, 0.85, 0.9, 999.0]
                            ],
                            "content": [1.0007, 0.9963, 0.9963, 1.0047, 1.0047, 0.9993],
                            "flow": "clamp"
                        }
                    }
                ]
            }
        }
    ]
}
